Project 3 – Part 2
…
climate_harm_moderate_amount <-climate_harm_personally|>
  slice(2)|>
  select(-'harm_personally')|>
  mutate(A = Albania)
climate_harm_moderate_amount2 <- pivot_longer(climate_harm_moderate_amount, cols = -A, names_to = "Country name", values_to = "Harm_moderate_amount")|>
  select(- A)

climate_harm <- inner_join(climate_harm_personally_great_deal2,climate_harm_moderate_amount2, "Country name" )
climate_harm2 <- climate_harm|>
  mutate(Harm = `Harm_personally_great_deal` +`Harm_moderate_amount`)
climate_harm2

# A tibble: 110 × 4
   `Country name`          Harm_personally_great_deal Harm_moderate_amount  Harm
   <chr>                                        <dbl>                <dbl> <dbl>
 1 Albania                                       23.9                 28.6  52.5
 2 Algeria                                       27.3                 24.2  51.5
 3 Angola                                        50.2                 20.8  71.0
 4 Argentina                                     39.1                 28.4  67.5
 5 Armenia                                       15.5                 28.1  43.7
 6 Asian & Pacific Islands                       44.9                 22.5  67.4
 7 Australia                                     21.2                 33.4  54.6
 8 Austria                                       24.7                 37.9  62.5
 9 Azerbaijan                                    16.8                 34.8  51.6
10 Bangladesh                                    45.8                 22.0  67.8
# ℹ 100 more rows

This table is used show what each countries opinions on how climate change harms a countries populations via an opinion survey. The ‘Country name’ column is categorical and provides the geographic region, while the ‘harm_personally_great_deal’, ‘Harm_moderate_amount’, and ‘harm’ columns are quantitative, representing the severity of the harm (a great deal, moderate amount) and the overall perceived harm of the two added together. The quantitative values are percentages of the surveyed population, and overall the values represent a subset of the ‘Opinions on climate data from Meta’ data-set.

1.4.2 Numerical Analysis: the Happiness of Each Country

world_happiness_address <- read_xls("world_happiness_data.xls", sheet = 1) 
world_happiness_postive_affect <- world_happiness_address |>
  filter(year == 2022)|>
  select('Country name', 'Positive affect')
world_happiness_postive_affect

# A tibble: 114 × 2
   `Country name` `Positive affect`
   <chr>                      <dbl>
 1 Afghanistan                0.206
 2 Albania                    0.547
 3 Argentina                  0.724
 4 Armenia                    0.531
 5 Australia                  0.711
 6 Austria                    0.718
 7 Bangladesh                 0.394
 8 Belgium                    0.718
 9 Benin                      0.571
10 Bolivia                    0.738
# ℹ 104 more rows
…
